cpu.vcd
$version Generated by VerilatedVcd $end
$date Wed Dec  7 23:46:19 2022 $end
$timescale 1ps $end

 $scope module TOP $end
  $var wire  4 x ALUctrl_Out [3:0] $end
  $var wire  1 y ALUsrc_Out $end
  $var wire 32 !! Data_Out [31:0] $end
  $var wire 16 } Decode_PC_Out [15:0] $end
  $var wire 32 i ImmExt_Out [31:0] $end
  $var wire 25 | ImmOp_Out [24:0] $end
  $var wire  3 z Immsrc_Out [2:0] $end
  $var wire 32 l Instruction_Out [31:0] $end
  $var wire 32 p MemAddr_Out [31:0] $end
  $var wire 32 q MemData_Out [31:0] $end
  $var wire  1 w MemWrite_Out $end
  $var wire 16 j PC_Out [15:0] $end
  $var wire 16 k PC_Target_Out [15:0] $end
  $var wire 16 m PC_new_Out [15:0] $end
  $var wire  1 u PCsrc_Out $end
  $var wire  5 s RA1_Out [4:0] $end
  $var wire  5 t RA2_Out [4:0] $end
  $var wire 32 n RD1_Out [31:0] $end
  $var wire 32 o RD2_Out [31:0] $end
  $var wire  1 { RegWrite_Out $end
  $var wire  1 v Resultsrc_Out $end
  $var wire  5 ~ WrAddr_Out [4:0] $end
  $var wire  1 r ZERO_Out $end
  $var wire  1 g clk $end
  $var wire  1 h rst $end
  $scope module cpu $end
   $var wire 32 $! ADDRESS_WIDTH [31:0] $end
   $var wire 32 '! ALUCTRL_WIDTH [31:0] $end
   $var wire 32 4 ALU_OP2 [31:0] $end
   $var wire 32 5 ALU_Result [31:0] $end
   $var wire  4 / ALUctrl [3:0] $end
   $var wire  4 x ALUctrl_Out [3:0] $end
   $var wire  1 0 ALUsrc $end
   $var wire  1 y ALUsrc_Out $end
   $var wire 32 %! DATA_WIDTH [31:0] $end
   $var wire 32 6 DOut [31:0] $end
   $var wire 32 !! Data_Out [31:0] $end
   $var wire 16 } Decode_PC_Out [15:0] $end
   $var wire 32 )! IMMOP_WIDTH [31:0] $end
   $var wire 32 (! IMMSRC_WIDTH [31:0] $end
   $var wire 32 %! INSTR_WIDTH [31:0] $end
   $var wire 32 3 ImmExt [31:0] $end
   $var wire 32 i ImmExt_Out [31:0] $end
   $var wire 25 2 ImmOp [24:0] $end
   $var wire 25 | ImmOp_Out [24:0] $end
   $var wire  3 1 ImmSel [2:0] $end
   $var wire  3 z Immsrc_Out [2:0] $end
   $var wire 32 a Instr [31:0] $end
   $var wire 32 l Instruction_Out [31:0] $end
   $var wire 32 p MemAddr_Out [31:0] $end
   $var wire 32 q MemData_Out [31:0] $end
   $var wire 32 -! MemWrAdd [31:0] $end
   $var wire  1 ( MemWrite $end
   $var wire  1 w MemWrite_Out $end
   $var wire 32 ? Memory_Read [31:0] $end
   $var wire 16 *! PC [15:0] $end
   $var wire 16 ` PC_Next_Cycle [15:0] $end
   $var wire 16 j PC_Out [15:0] $end
   $var wire 16 # PC_Target [15:0] $end
   $var wire 16 k PC_Target_Out [15:0] $end
   $var wire 32 &! PC_WIDTH [31:0] $end
   $var wire 16 +! PC_new [15:0] $end
   $var wire 16 m PC_new_Out [15:0] $end
   $var wire 16 $ PC_to_Extend [15:0] $end
   $var wire 16 ,! PC_to_PCreg [15:0] $end
   $var wire  1 % PCsrc $end
   $var wire  1 u PCsrc_Out $end
   $var wire  5 * RA1 [4:0] $end
   $var wire  5 s RA1_Out [4:0] $end
   $var wire  5 , RA2 [4:0] $end
   $var wire  5 t RA2_Out [4:0] $end
   $var wire 32 + RD1 [31:0] $end
   $var wire 32 n RD1_Out [31:0] $end
   $var wire 32 - RD2 [31:0] $end
   $var wire 32 o RD2_Out [31:0] $end
   $var wire  1 { RegWrite_Out $end
   $var wire  1 ' Resultsrc $end
   $var wire  1 v Resultsrc_Out $end
   $var wire  5 . WA3 [4:0] $end
   $var wire  1 ) WEn $end
   $var wire  5 ~ WrAddr_Out [4:0] $end
   $var wire  1 r ZERO_Out $end
   $var wire  1 g clk $end
   $var wire  1 h rst $end
   $var wire  1 & zero $end
   $scope module ALU $end
    $var wire 32 '! ALUCTRL_WIDTH [31:0] $end
    $var wire  4 / ALUCtrl [3:0] $end
    $var wire 32 + ALUop1 [31:0] $end
    $var wire 32 4 ALUop2 [31:0] $end
    $var wire 32 %! DATA_WIDTH [31:0] $end
    $var wire 32 5 SUM [31:0] $end
    $var wire  1 & ZERO $end
   $upscope $end
   $scope module ALUMux $end
    $var wire 32 %! WORD_WIDTH [31:0] $end
    $var wire 32 4 dout [31:0] $end
    $var wire 32 - option0 [31:0] $end
    $var wire 32 3 option1 [31:0] $end
    $var wire  1 0 sel $end
   $upscope $end
   $scope module Decoder $end
    $var wire 32 '! ALUCTRLW [31:0] $end
    $var wire  4 / ALUctrl [3:0] $end
    $var wire  4 < ALUopcode [3:0] $end
    $var wire  1 0 ALUsrc $end
    $var wire 32 (! BRCHCDEW [31:0] $end
    $var wire 32 )! IMMOPW [31:0] $end
    $var wire 32 (! IMMSELW [31:0] $end
    $var wire 32 %! INSTRW [31:0] $end
    $var wire 25 : Imm [24:0] $end
    $var wire 25 2 ImmOp [24:0] $end
    $var wire  3 1 Immsrc [2:0] $end
    $var wire 32 a Instruction [31:0] $end
    $var wire 32 %! MEMWRITEW [31:0] $end
    $var wire  1 ( MemWrite $end
    $var wire 32 0! OPCODEW [31:0] $end
    $var wire 16 $ PC [15:0] $end
    $var wire  1 % PCSrc $end
    $var wire 32 &! PCWIDTH [31:0] $end
    $var wire 16 +! PC_next [15:0] $end
    $var wire 32 $! RDADDR1W [31:0] $end
    $var wire 32 $! RDADDR2W [31:0] $end
    $var wire  5 * RdAdd1 [4:0] $end
    $var wire  5 , RdAdd2 [4:0] $end
    $var wire  1 ) RegWrite $end
    $var wire  1 ' ResultSrc $end
    $var wire 32 $! SHORTIMMW [31:0] $end
    $var wire  5 2! ShortImm [4:0] $end
    $var wire 32 /! UPPERIMW [31:0] $end
    $var wire 20 1! UpperImm [19:0] $end
    $var wire 32 $! WRADDRW [31:0] $end
    $var wire  5 . WrAddr [4:0] $end
    $var wire  1 & ZERO [0:0] $end
    $var wire 32 .! ZEROW [31:0] $end
    $var wire  3 > branchcode [2:0] $end
    $var wire  7 ; opcode [6:0] $end
    $var wire  5 = r0 [4:0] $end
    $var wire  5 7 rd [4:0] $end
    $var wire  5 8 rs1 [4:0] $end
    $var wire  5 9 rs2 [4:0] $end
   $upscope $end
   $scope module DoutMux $end
    $var wire 32 %! WORD_WIDTH [31:0] $end
    $var wire 32 6 dout [31:0] $end
    $var wire 32 5 option0 [31:0] $end
    $var wire 32 ? option1 [31:0] $end
    $var wire  1 ' sel $end
   $upscope $end
   $scope module MemFile $end
    $var wire 32 &! ADDRESS_WIDTH [31:0] $end
    $var wire 32 !! ALUresult [31:0] $end
    $var wire 32 %! DATA_WIDTH [31:0] $end
    $var wire 32 ? ReadData [31:0] $end
    $var wire  1 ( WEN $end
    $var wire 32 - WriteData [31:0] $end
    $var wire  1 g clk $end
   $upscope $end
   $scope module PCMem $end
    $var wire 32 &! ADDRESS_WIDTH [31:0] $end
    $var wire 32 %! DATA_WIDTH [31:0] $end
    $var wire 16 ` PC [15:0] $end
    $var wire 32 a instr [31:0] $end
    $var wire  8 b instrByte1 [7:0] $end
    $var wire  8 c instrByte2 [7:0] $end
    $var wire  8 d instrByte3 [7:0] $end
    $var wire  8 e instrByte4 [7:0] $end
   $upscope $end
   $scope module PCTarget $end
    $var wire 32 %! DATA_WIDTH [31:0] $end
    $var wire 32 3 ImmExt [31:0] $end
    $var wire 16 *! PC [15:0] $end
    $var wire 16 # PC_Target [15:0] $end
    $var wire 32 &! PC_WIDTH [31:0] $end
   $upscope $end
   $scope module ProgramCounter $end
    $var wire 16 ` PC [15:0] $end
    $var wire 16 # PC_Target [15:0] $end
    $var wire 32 &! PC_WIDTH [31:0] $end
    $var wire  1 % PCsrc $end
    $var wire 16 "! branch_PC [15:0] $end
    $var wire  1 g clk $end
    $var wire 16 f inc_PC [15:0] $end
    $var wire 16 #! next_PC [15:0] $end
    $var wire  1 h rst $end
   $upscope $end
   $scope module RegFile $end
    $var wire 32 $! ADDRESS_WIDTH [31:0] $end
    $var wire  5 * RA1 [4:0] $end
    $var wire  5 , RA2 [4:0] $end
    $var wire 32 + RD1 [31:0] $end
    $var wire 32 - RD2 [31:0] $end
    $var wire  5 . WA3 [4:0] $end
    $var wire 32 6 WD3 [31:0] $end
    $var wire  1 ) WEN $end
    $var wire 32 %! WORD_WIDTH [31:0] $end
    $var wire  1 g clk $end
    $var wire 32 @ rom_array[0] [31:0] $end
    $var wire 32 J rom_array[10] [31:0] $end
    $var wire 32 K rom_array[11] [31:0] $end
    $var wire 32 L rom_array[12] [31:0] $end
    $var wire 32 M rom_array[13] [31:0] $end
    $var wire 32 N rom_array[14] [31:0] $end
    $var wire 32 O rom_array[15] [31:0] $end
    $var wire 32 P rom_array[16] [31:0] $end
    $var wire 32 Q rom_array[17] [31:0] $end
    $var wire 32 R rom_array[18] [31:0] $end
    $var wire 32 S rom_array[19] [31:0] $end
    $var wire 32 A rom_array[1] [31:0] $end
    $var wire 32 T rom_array[20] [31:0] $end
    $var wire 32 U rom_array[21] [31:0] $end
    $var wire 32 V rom_array[22] [31:0] $end
    $var wire 32 W rom_array[23] [31:0] $end
    $var wire 32 X rom_array[24] [31:0] $end
    $var wire 32 Y rom_array[25] [31:0] $end
    $var wire 32 Z rom_array[26] [31:0] $end
    $var wire 32 [ rom_array[27] [31:0] $end
    $var wire 32 \ rom_array[28] [31:0] $end
    $var wire 32 ] rom_array[29] [31:0] $end
    $var wire 32 B rom_array[2] [31:0] $end
    $var wire 32 ^ rom_array[30] [31:0] $end
    $var wire 32 _ rom_array[31] [31:0] $end
    $var wire 32 C rom_array[3] [31:0] $end
    $var wire 32 D rom_array[4] [31:0] $end
    $var wire 32 E rom_array[5] [31:0] $end
    $var wire 32 F rom_array[6] [31:0] $end
    $var wire 32 G rom_array[7] [31:0] $end
    $var wire 32 H rom_array[8] [31:0] $end
    $var wire 32 I rom_array[9] [31:0] $end
   $upscope $end
   $scope module SignExt $end
    $var wire 32 %! DATA_WIDTH [31:0] $end
    $var wire 25 2 Imm [31:7] $end
    $var wire 32 3 ImmExt [31:0] $end
    $var wire  3 1 ImmSel [2:0] $end
   $upscope $end
  $upscope $end
 $upscope $end
$enddefinitions $end


#0
b0000000000000000 #
b0000000000000000 $
0%
0&
0'
0(
0)
b00000 *
b00000000000000000000000000000000 +
b00000 ,
b00000000000000000000000000000000 -
b00000 .
b0000 /
00
b000 1
b0000000000000000000000000 2
b00000000000000000000000000000000 3
b00000000000000000000000000000000 4
b00000000000000000000000000000000 5
b00000000000000000000000000000000 6
b00000 7
b00000 8
b00000 9
b0000000000000000000000000 :
b0000000 ;
b0000 <
b00000 =
b000 >
b00000000000000000000000000000000 ?
b00000000000000000000000000000000 @
b00000000000000000000000000000000 A
b00000000000000000000000000000000 B
b00000000000000000000000000000000 C
b00000000000000000000000000000000 D
b00000000000000000000000000000000 E
b00000000000000000000000000000000 F
b00000000000000000000000000000000 G
b00000000000000000000000000000000 H
b00000000000000000000000000000000 I
b00000000000000000000000000000000 J
b00000000000000000000000000000000 K
b00000000000000000000000000000000 L
b00000000000000000000000000000000 M
b00000000000000000000000000000000 N
b00000000000000000000000000000000 O
b00000000000000000000000000000000 P
b00000000000000000000000000000000 Q
b00000000000000000000000000000000 R
b00000000000000000000000000000000 S
b00000000000000000000000000000000 T
b00000000000000000000000000000000 U
b00000000000000000000000000000000 V
b00000000000000000000000000000000 W
b00000000000000000000000000000000 X
b00000000000000000000000000000000 Y
b00000000000000000000000000000000 Z
b00000000000000000000000000000000 [
b00000000000000000000000000000000 \
b00000000000000000000000000000000 ]
b00000000000000000000000000000000 ^
b00000000000000000000000000000000 _
b0000000000000000 `
b00000000000000000000000000000000 a
b00000000 b
b00000000 c
b00000000 d
b00000000 e
b0000000000000100 f
0g
0h
b00000000000000000000000000000000 i
b0000000000000000 j
b0000000000000000 k
b00000000000000000000000000000000 l
b0000000000000000 m
b00000000000000000000000000000000 n
b00000000000000000000000000000000 o
b00000000000000000000000000000000 p
b00000000000000000000000000000000 q
0r
b00000 s
b00000 t
0u
0v
0w
b0000 x
0y
b000 z
0{
b0000000000000000000000000 |
b0000000000000000 }
b00000 ~
b00000000000000000000000000000000 !!
b0000000000000000 "!
b0000000000000100 #!
b00000000000000000000000000000101 $!
b00000000000000000000000000100000 %!
b00000000000000000000000000010000 &!
b00000000000000000000000000000100 '!
b00000000000000000000000000000011 (!
b00000000000000000000000000011001 )!
b0000000000000000 *!
b0000000000000000 +!
b0000000000000000 ,!
b00000000000000000000000000000000 -!
b00000000000000000000000000000001 .!
b00000000000000000000000000010100 /!
b00000000000000000000000000000111 0!
b00000000000000000000 1!
b00000 2!
#1
1&
1)
b00001 .
10
b0000000000000000000000001 2
b00001 7
b0000000000000000000000001 :
b0010011 ;
b00000000000000000000000010010011 a
b10010011 b
1g
b00000000000000000000000010010011 l
1r
1y
1{
b0000000000000000000000001 |
b00001 ~
#2
0g
#3
b0000000000000001 #
0&
b00001 *
b0000000000010000100000001 2
b00000000000000000000000000000001 3
b00000000000000000000000000000001 4
b00000000000000000000000000000001 5
b00000000000000000000000000000001 6
b00001 8
b00001 9
b0000000000010000100000001 :
b0000000000000100 `
b00000000000100001000000010010011 a
b10000000 c
b00010000 d
b0000000000001000 f
1g
b00000000000000000000000000000001 i
b0000000000000001 k
b00000000000100001000000010010011 l
0r
b00001 s
b0000000000010000100000001 |
b00000000000000000000000000000001 !!
b0000000000000101 "!
b0000000000001000 #!
#4
0g
#5
b0000000000000010 #
b00000000000000000000000000000001 +
b0000000000100000100000001 2
b00000000000000000000000000000010 3
b00000000000000000000000000000010 4
b00000000000000000000000000000011 5
b00000000000000000000000000000011 6
b00010 9
b0000000000100000100000001 :
b00000000000000000000000000000001 A
b0000000000001000 `
b00000000001000001000000010010011 a
b00100000 d
b0000000000001100 f
1g
b00000000000000000000000000000010 i
b0000000000000010 k
b00000000001000001000000010010011 l
b00000000000000000000000000000001 n
b0000000000100000100000001 |
b00000000000000000000000000000011 !!
b0000000000001010 "!
b0000000000001100 #!
#6
0g
#7
b0000000000000100 #
b00000000000000000000000000000011 +
b0000000001000000100000001 2
b00000000000000000000000000000100 3
b00000000000000000000000000000100 4
b00000000000000000000000000000111 5
b00000000000000000000000000000111 6
b00100 9
b0000000001000000100000001 :
b00000000000000000000000000000011 A
b0000000000001100 `
b00000000010000001000000010010011 a
b01000000 d
b0000000000010000 f
1g
b00000000000000000000000000000100 i
b0000000000000100 k
b00000000010000001000000010010011 l
b00000000000000000000000000000011 n
b0000000001000000100000001 |
b00000000000000000000000000000111 !!
b0000000000010000 "!
b0000000000010000 #!
#8
0g
#9
b0000000000001000 #
b00000000000000000000000000000111 +
b0000000010000000100000001 2
b00000000000000000000000000001000 3
b00000000000000000000000000001000 4
b00000000000000000000000000001111 5
b00000000000000000000000000001111 6
b01000 9
b0000000010000000100000001 :
b00000000000000000000000000000111 A
b0000000000010000 `
b00000000100000001000000010010011 a
b10000000 d
b0000000000010100 f
1g
b00000000000000000000000000001000 i
b0000000000001000 k
b00000000100000001000000010010011 l
b00000000000000000000000000000111 n
b0000000010000000100000001 |
b00000000000000000000000000001111 !!
b0000000000011000 "!
b0000000000010100 #!
#10
0g
#11
b0000000000010000 #
b00000000000000000000000000001111 +
b0000000100000000100000001 2
b00000000000000000000000000010000 3
b00000000000000000000000000010000 4
b00000000000000000000000000011111 5
b00000000000000000000000000011111 6
b10000 9
b0000000100000000100000001 :
b00000000000000000000000000001111 A
b0000000000010100 `
b00000001000000001000000010010011 a
b00000000 d
b00000001 e
b0000000000011000 f
1g
b00000000000000000000000000010000 i
b0000000000010000 k
b00000001000000001000000010010011 l
b00000000000000000000000000001111 n
b0000000100000000100000001 |
b00000000000000000000000000011111 !!
b0000000000100100 "!
b0000000000011000 #!
#12
0g
#13
b0000000000100000 #
b00000000000000000000000000011111 +
b0000001000000000100000001 2
b00000000000000000000000000100000 3
b00000000000000000000000000100000 4
b00000000000000000000000000111111 5
b00000000000000000000000000111111 6
b00000 9
b0000001000000000100000001 :
b00000000000000000000000000011111 A
b0000000000011000 `
b00000010000000001000000010010011 a
b00000010 e
b0000000000011100 f
1g
b00000000000000000000000000100000 i
b0000000000100000 k
b00000010000000001000000010010011 l
b00000000000000000000000000011111 n
b0000001000000000100000001 |
b00000000000000000000000000111111 !!
b0000000000111000 "!
b0000000000011100 #!
#14
0g
#15
b0000000001000000 #
b00000000000000000000000000111111 +
b0000010000000000100000001 2
b00000000000000000000000001000000 3
b00000000000000000000000001000000 4
b00000000000000000000000001111111 5
b00000000000000000000000001111111 6
b0000010000000000100000001 :
b00000000000000000000000000111111 A
b0000000000011100 `
b00000100000000001000000010010011 a
b00000100 e
b0000000000100000 f
1g
b00000000000000000000000001000000 i
b0000000001000000 k
b00000100000000001000000010010011 l
b00000000000000000000000000111111 n
b0000010000000000100000001 |
b00000000000000000000000001111111 !!
b0000000001011100 "!
b0000000000100000 #!
#16
0g
#17
b0000000010000000 #
b00000000000000000000000001111111 +
b0000100000000000100000001 2
b00000000000000000000000010000000 3
b00000000000000000000000010000000 4
b00000000000000000000000011111111 5
b00000000000000000000000011111111 6
b0000100000000000100000001 :
b00000000000000000000000001111111 A
b0000000000100000 `
b00001000000000001000000010010011 a
b00001000 e
b0000000000100100 f
1g
b00000000000000000000000010000000 i
b0000000010000000 k
b00001000000000001000000010010011 l
b00000000000000000000000001111111 n
b0000100000000000100000001 |
b00000000000000000000000011111111 !!
b0000000010100000 "!
b0000000000100100 #!
#18
0g
#19
b0000000100000000 #
b00000 *
b00000000000000000000000000000000 +
b00010 .
b0001000000000000000000010 2
b00000000000000000000000100000000 3
b00000000000000000000000100000000 4
b00000000000000000000000100000000 5
b00000000000000000000000100000000 6
b00010 7
b00000 8
b0001000000000000000000010 :
b00000000000000000000000011111111 A
b0000000000100100 `
b00010000000000000000000100010011 a
b00010011 b
b00000001 c
b00010000 e
b0000000000101000 f
1g
b00000000000000000000000100000000 i
b0000000100000000 k
b00010000000000000000000100010011 l
b00000000000000000000000000000000 n
b00000 s
b0001000000000000000000010 |
b00010 ~
b00000000000000000000000100000000 !!
b0000000100100100 "!
b0000000000101000 #!
#20
0g
#21
b0000010000000001 #
b00010 *
b00000000000000000000000100000000 +
b00001 ,
b00000000000000000000000011111111 -
b00001 .
b1000 /
00
b0100000000010001000000001 2
b00000000000000000000010000000001 3
b00000000000000000000000011111111 4
b00000000000000000000000000000001 5
b00000000000000000000000000000001 6
b00001 7
b00010 8
b00001 9
b0100000000010001000000001 :
b0110011 ;
b1000 <
b00000000000000000000000100000000 B
b0000000000101000 `
b01000000000100010000000010110011 a
b10110011 b
b00000000 c
b00010001 d
b01000000 e
b0000000000101100 f
1g
b00000000000000000000010000000001 i
b0000010000000001 k
b01000000000100010000000010110011 l
b00000000000000000000000100000000 n
b00000000000000000000000011111111 o
b00010 s
b00001 t
b1000 x
0y
b0100000000010001000000001 |
b00001 ~
b00000000000000000000000000000001 !!
b0000010000101001 "!
b0000000000101100 #!
#22
0g
#23
b0000000000000000 #
1&
0)
b00000 *
b00000000000000000000000000000000 +
b00000 ,
b00000000000000000000000000000000 -
b00000 .
b0000 /
10
b0000000000000000000000000 2
b00000000000000000000000000000000 3
b00000000000000000000000000000000 4
b00000000000000000000000000000000 5
b00000000000000000000000000000000 6
b00000 7
b00000 8
b00000 9
b0000000000000000000000000 :
b0000000 ;
b0000 <
b00000000000000000000000000000001 A
b0000000000101100 `
b00000000000000000000000000000000 a
b00000000 b
b00000000 d
b00000000 e
b0000000000110000 f
1g
b00000000000000000000000000000000 i
b0000000000000000 k
b00000000000000000000000000000000 l
b00000000000000000000000000000000 n
b00000000000000000000000000000000 o
1r
b00000 s
b00000 t
b0000 x
1y
0{
b0000000000000000000000000 |
b00000 ~
b00000000000000000000000000000000 !!
b0000000000101100 "!
b0000000000110000 #!
#24
0g
#25
b0000000000110000 `
b0000000000110100 f
1g
b0000000000110000 "!
b0000000000110100 #!
#26
0g
#27
b0000000000110100 `
b0000000000111000 f
1g
b0000000000110100 "!
b0000000000111000 #!
#28
0g
#29
b0000000000111000 `
b0000000000111100 f
1g
b0000000000111000 "!
b0000000000111100 #!
#30
0g
#31
b0000000000111100 `
b0000000001000000 f
1g
b0000000000111100 "!
b0000000001000000 #!
#32
0g
#33
b0000000001000000 `
b0000000001000100 f
1g
b0000000001000000 "!
b0000000001000100 #!
#34
0g
#35
b0000000001000100 `
b0000000001001000 f
1g
b0000000001000100 "!
b0000000001001000 #!
#36
0g
#37
b0000000001001000 `
b0000000001001100 f
1g
b0000000001001000 "!
b0000000001001100 #!
#38
0g
#39
b0000000001001100 `
b0000000001010000 f
1g
b0000000001001100 "!
b0000000001010000 #!
#40
0g
#41
b0000000001010000 `
b0000000001010100 f
1g
b0000000001010000 "!
b0000000001010100 #!
#42
0g
#43
b0000000001010100 `
b0000000001011000 f
1g
b0000000001010100 "!
b0000000001011000 #!
#44
0g
#45
b0000000001011000 `
b0000000001011100 f
1g
b0000000001011000 "!
b0000000001011100 #!
#46
0g
#47
b0000000001011100 `
b0000000001100000 f
1g
b0000000001011100 "!
b0000000001100000 #!
#48
0g
#49
b0000000001100000 `
b0000000001100100 f
1g
b0000000001100000 "!
b0000000001100100 #!
#50
0g
#51
b0000000001100100 `
b0000000001101000 f
1g
b0000000001100100 "!
b0000000001101000 #!
#52
0g
#53
b0000000001101000 `
b0000000001101100 f
1g
b0000000001101000 "!
b0000000001101100 #!
#54
0g
#55
b0000000001101100 `
b0000000001110000 f
1g
b0000000001101100 "!
b0000000001110000 #!
#56
0g
#57
b0000000001110000 `
b0000000001110100 f
1g
b0000000001110000 "!
b0000000001110100 #!
#58
0g
#59
b0000000001110100 `
b0000000001111000 f
1g
b0000000001110100 "!
b0000000001111000 #!
#60
0g
#61
b0000000001111000 `
b0000000001111100 f
1g
b0000000001111000 "!
b0000000001111100 #!
#62
0g
#63
b0000000001111100 `
b0000000010000000 f
1g
b0000000001111100 "!
b0000000010000000 #!
#64
0g
#65
b0000000010000000 `
b0000000010000100 f
1g
b0000000010000000 "!
b0000000010000100 #!
#66
0g
#67
b0000000010000100 `
b0000000010001000 f
1g
b0000000010000100 "!
b0000000010001000 #!
#68
0g
#69
b0000000010001000 `
b0000000010001100 f
1g
b0000000010001000 "!
b0000000010001100 #!
#70
0g
#71
b0000000010001100 `
b0000000010010000 f
1g
b0000000010001100 "!
b0000000010010000 #!
#72
0g
#73
b0000000010010000 `
b0000000010010100 f
1g
b0000000010010000 "!
b0000000010010100 #!
#74
0g
#75
b0000000010010100 `
b0000000010011000 f
1g
b0000000010010100 "!
b0000000010011000 #!
#76
0g
#77
b0000000010011000 `
b0000000010011100 f
1g
b0000000010011000 "!
b0000000010011100 #!
#78
0g
#79
b0000000010011100 `
b0000000010100000 f
1g
b0000000010011100 "!
b0000000010100000 #!
#80
0g
#81
b0000000010100000 `
b0000000010100100 f
1g
b0000000010100000 "!
b0000000010100100 #!
#82
0g
#83
b0000000010100100 `
b0000000010101000 f
1g
b0000000010100100 "!
b0000000010101000 #!
#84
0g
#85
b0000000010101000 `
b0000000010101100 f
1g
b0000000010101000 "!
b0000000010101100 #!
#86
0g
#87
b0000000010101100 `
b0000000010110000 f
1g
b0000000010101100 "!
b0000000010110000 #!
#88
0g
#89
b0000000010110000 `
b0000000010110100 f
1g
b0000000010110000 "!
b0000000010110100 #!
#90
0g
#91
b0000000010110100 `
b0000000010111000 f
1g
b0000000010110100 "!
b0000000010111000 #!
#92
0g
#93
b0000000010111000 `
b0000000010111100 f
1g
b0000000010111000 "!
b0000000010111100 #!
#94
0g
#95
b0000000010111100 `
b0000000011000000 f
1g
b0000000010111100 "!
b0000000011000000 #!
#96
0g
#97
b0000000011000000 `
b0000000011000100 f
1g
b0000000011000000 "!
b0000000011000100 #!
#98
0g
#99
b0000000011000100 `
b0000000011001000 f
1g
b0000000011000100 "!
b0000000011001000 #!
#100
0g
#101
b0000000011001000 `
b0000000011001100 f
1g
b0000000011001000 "!
b0000000011001100 #!
#102
0g
#103
b0000000011001100 `
b0000000011010000 f
1g
b0000000011001100 "!
b0000000011010000 #!
#104
0g
#105
b0000000011010000 `
b0000000011010100 f
1g
b0000000011010000 "!
b0000000011010100 #!
#106
0g
#107
b0000000011010100 `
b0000000011011000 f
1g
b0000000011010100 "!
b0000000011011000 #!
#108
0g
#109
b0000000011011000 `
b0000000011011100 f
1g
b0000000011011000 "!
b0000000011011100 #!
#110
0g
#111
b0000000011011100 `
b0000000011100000 f
1g
b0000000011011100 "!
b0000000011100000 #!
#112
0g
#113
b0000000011100000 `
b0000000011100100 f
1g
b0000000011100000 "!
b0000000011100100 #!
#114
0g
#115
b0000000011100100 `
b0000000011101000 f
1g
b0000000011100100 "!
b0000000011101000 #!
#116
0g
#117
b0000000011101000 `
b0000000011101100 f
1g
b0000000011101000 "!
b0000000011101100 #!
#118
0g
#119
b0000000011101100 `
b0000000011110000 f
1g
b0000000011101100 "!
b0000000011110000 #!
#120
0g
#121
b0000000011110000 `
b0000000011110100 f
1g
b0000000011110000 "!
b0000000011110100 #!
#122
0g
#123
b0000000011110100 `
b0000000011111000 f
1g
b0000000011110100 "!
b0000000011111000 #!
#124
0g
#125
b0000000011111000 `
b0000000011111100 f
1g
b0000000011111000 "!
b0000000011111100 #!
#126
0g
#127
b0000000011111100 `
b0000000100000000 f
1g
b0000000011111100 "!
b0000000100000000 #!
#128
0g
#129
b0000000100000000 `
b0000000100000100 f
1g
b0000000100000000 "!
b0000000100000100 #!
#130
0g
#131
b0000000100000100 `
b0000000100001000 f
1g
b0000000100000100 "!
b0000000100001000 #!
#132
0g
#133
b0000000100001000 `
b0000000100001100 f
1g
b0000000100001000 "!
b0000000100001100 #!
#134
0g
#135
b0000000100001100 `
b0000000100010000 f
1g
b0000000100001100 "!
b0000000100010000 #!
#136
0g
#137
b0000000100010000 `
b0000000100010100 f
1g
b0000000100010000 "!
b0000000100010100 #!
#138
0g
#139
b0000000100010100 `
b0000000100011000 f
1g
b0000000100010100 "!
b0000000100011000 #!
#140
0g
#141
b0000000100011000 `
b0000000100011100 f
1g
b0000000100011000 "!
b0000000100011100 #!
#142
0g
#143
b0000000100011100 `
b0000000100100000 f
1g
b0000000100011100 "!
b0000000100100000 #!
#144
0g
#145
b0000000100100000 `
b0000000100100100 f
1g
b0000000100100000 "!
b0000000100100100 #!
#146
0g
#147
b0000000100100100 `
b0000000100101000 f
1g
b0000000100100100 "!
b0000000100101000 #!
#148
0g
#149
b0000000100101000 `
b0000000100101100 f
1g
b0000000100101000 "!
b0000000100101100 #!
#150
0g
#151
b0000000100101100 `
b0000000100110000 f
1g
b0000000100101100 "!
b0000000100110000 #!
#152
0g
#153
b0000000100110000 `
b0000000100110100 f
1g
b0000000100110000 "!
b0000000100110100 #!
#154
0g
#155
b0000000100110100 `
b0000000100111000 f
1g
b0000000100110100 "!
b0000000100111000 #!
#156
0g
#157
b0000000100111000 `
b0000000100111100 f
1g
b0000000100111000 "!
b0000000100111100 #!
#158
0g
#159
b0000000100111100 `
b0000000101000000 f
1g
b0000000100111100 "!
b0000000101000000 #!
#160
0g
#161
b0000000101000000 `
b0000000101000100 f
1g
b0000000101000000 "!
b0000000101000100 #!
#162
0g
#163
b0000000101000100 `
b0000000101001000 f
1g
b0000000101000100 "!
b0000000101001000 #!
#164
0g
#165
b0000000101001000 `
b0000000101001100 f
1g
b0000000101001000 "!
b0000000101001100 #!
#166
0g
#167
b0000000101001100 `
b0000000101010000 f
1g
b0000000101001100 "!
b0000000101010000 #!
#168
0g
#169
b0000000101010000 `
b0000000101010100 f
1g
b0000000101010000 "!
b0000000101010100 #!
#170
0g
#171
b0000000101010100 `
b0000000101011000 f
1g
b0000000101010100 "!
b0000000101011000 #!
#172
0g
#173
b0000000101011000 `
b0000000101011100 f
1g
b0000000101011000 "!
b0000000101011100 #!
#174
0g
#175
b0000000101011100 `
b0000000101100000 f
1g
b0000000101011100 "!
b0000000101100000 #!
#176
0g
#177
b0000000101100000 `
b0000000101100100 f
1g
b0000000101100000 "!
b0000000101100100 #!
#178
0g
#179
b0000000101100100 `
b0000000101101000 f
1g
b0000000101100100 "!
b0000000101101000 #!
#180
0g
#181
b0000000101101000 `
b0000000101101100 f
1g
b0000000101101000 "!
b0000000101101100 #!
#182
0g
#183
b0000000101101100 `
b0000000101110000 f
1g
b0000000101101100 "!
b0000000101110000 #!
#184
0g
#185
b0000000101110000 `
b0000000101110100 f
1g
b0000000101110000 "!
b0000000101110100 #!
#186
0g
#187
b0000000101110100 `
b0000000101111000 f
1g
b0000000101110100 "!
b0000000101111000 #!
#188
0g
#189
b0000000101111000 `
b0000000101111100 f
1g
b0000000101111000 "!
b0000000101111100 #!
#190
0g
#191
b0000000101111100 `
b0000000110000000 f
1g
b0000000101111100 "!
b0000000110000000 #!
#192
0g
#193
b0000000110000000 `
b0000000110000100 f
1g
b0000000110000000 "!
b0000000110000100 #!
#194
0g
#195
b0000000110000100 `
b0000000110001000 f
1g
b0000000110000100 "!
b0000000110001000 #!
#196
0g
#197
b0000000110001000 `
b0000000110001100 f
1g
b0000000110001000 "!
b0000000110001100 #!
#198
0g
#199
b0000000110001100 `
b0000000110010000 f
1g
b0000000110001100 "!
b0000000110010000 #!
