cpu.vcd
$version Generated by VerilatedVcd $end
$date Sun Dec 11 20:02:16 2022 $end
$timescale 1ps $end

 $scope module TOP $end
  $var wire  4 y ALUctrl_Out [3:0] $end
  $var wire  1 z ALUsrc_Out $end
  $var wire 32 "! Data_Out [31:0] $end
  $var wire 16 ~ Decode_PC_Out [15:0] $end
  $var wire 32 j ImmExt_Out [31:0] $end
  $var wire 25 } ImmOp_Out [24:0] $end
  $var wire  3 { Immsrc_Out [2:0] $end
  $var wire 32 m Instruction_Out [31:0] $end
  $var wire 32 q MemAddr_Out [31:0] $end
  $var wire 32 r MemData_Out [31:0] $end
  $var wire  1 x MemWrite_Out $end
  $var wire 16 k PC_Out [15:0] $end
  $var wire 16 l PC_Target_Out [15:0] $end
  $var wire 16 n PC_new_Out [15:0] $end
  $var wire  1 v PCsrc_Out $end
  $var wire  5 t RA1_Out [4:0] $end
  $var wire  5 u RA2_Out [4:0] $end
  $var wire 32 o RD1_Out [31:0] $end
  $var wire 32 p RD2_Out [31:0] $end
  $var wire  1 | RegWrite_Out $end
  $var wire  1 w Resultsrc_Out $end
  $var wire  5 !! WrAddr_Out [4:0] $end
  $var wire  1 s ZERO_Out $end
  $var wire  1 h clk $end
  $var wire  1 i rst $end
  $scope module cpu $end
   $var wire 32 $! ADDRESS_WIDTH [31:0] $end
   $var wire 32 '! ALUCTRL_WIDTH [31:0] $end
   $var wire 32 4 ALU_OP2 [31:0] $end
   $var wire 32 5 ALU_Result [31:0] $end
   $var wire  4 / ALUctrl [3:0] $end
   $var wire  4 y ALUctrl_Out [3:0] $end
   $var wire  1 0 ALUsrc $end
   $var wire  1 z ALUsrc_Out $end
   $var wire 32 %! DATA_WIDTH [31:0] $end
   $var wire 32 6 DOut [31:0] $end
   $var wire 32 "! Data_Out [31:0] $end
   $var wire 16 ~ Decode_PC_Out [15:0] $end
   $var wire 32 )! IMMOP_WIDTH [31:0] $end
   $var wire 32 (! IMMSRC_WIDTH [31:0] $end
   $var wire 32 %! INSTR_WIDTH [31:0] $end
   $var wire 32 3 ImmExt [31:0] $end
   $var wire 32 j ImmExt_Out [31:0] $end
   $var wire 25 2 ImmOp [24:0] $end
   $var wire 25 } ImmOp_Out [24:0] $end
   $var wire  3 1 ImmSel [2:0] $end
   $var wire  3 { Immsrc_Out [2:0] $end
   $var wire 32 b Instr [31:0] $end
   $var wire 32 m Instruction_Out [31:0] $end
   $var wire 32 q MemAddr_Out [31:0] $end
   $var wire 32 r MemData_Out [31:0] $end
   $var wire 32 -! MemWrAdd [31:0] $end
   $var wire  1 ( MemWrite $end
   $var wire  1 x MemWrite_Out $end
   $var wire 32 7 Memory_Read [31:0] $end
   $var wire 16 *! PC [15:0] $end
   $var wire 16 a PC_Next_Cycle [15:0] $end
   $var wire 16 k PC_Out [15:0] $end
   $var wire 16 # PC_Target [15:0] $end
   $var wire 16 l PC_Target_Out [15:0] $end
   $var wire 32 &! PC_WIDTH [31:0] $end
   $var wire 16 +! PC_new [15:0] $end
   $var wire 16 n PC_new_Out [15:0] $end
   $var wire 16 $ PC_to_Extend [15:0] $end
   $var wire 16 ,! PC_to_PCreg [15:0] $end
   $var wire  1 % PCsrc $end
   $var wire  1 v PCsrc_Out $end
   $var wire  5 * RA1 [4:0] $end
   $var wire  5 t RA1_Out [4:0] $end
   $var wire  5 , RA2 [4:0] $end
   $var wire  5 u RA2_Out [4:0] $end
   $var wire 32 + RD1 [31:0] $end
   $var wire 32 o RD1_Out [31:0] $end
   $var wire 32 - RD2 [31:0] $end
   $var wire 32 p RD2_Out [31:0] $end
   $var wire  1 | RegWrite_Out $end
   $var wire  1 ' Resultsrc $end
   $var wire  1 w Resultsrc_Out $end
   $var wire  5 . WA3 [4:0] $end
   $var wire  1 ) WEn $end
   $var wire  5 !! WrAddr_Out [4:0] $end
   $var wire  1 s ZERO_Out $end
   $var wire  1 h clk $end
   $var wire  1 i rst $end
   $var wire  1 & zero $end
   $scope module ALU $end
    $var wire 32 '! ALUCTRL_WIDTH [31:0] $end
    $var wire  4 / ALUCtrl [3:0] $end
    $var wire 32 + ALUop1 [31:0] $end
    $var wire 32 4 ALUop2 [31:0] $end
    $var wire 32 %! DATA_WIDTH [31:0] $end
    $var wire 32 5 SUM [31:0] $end
    $var wire  1 & ZERO $end
   $upscope $end
   $scope module ALUMux $end
    $var wire 32 %! WORD_WIDTH [31:0] $end
    $var wire 32 4 dout [31:0] $end
    $var wire 32 - option0 [31:0] $end
    $var wire 32 3 option1 [31:0] $end
    $var wire  1 0 sel $end
   $upscope $end
   $scope module Decoder $end
    $var wire 32 '! ALUCTRLW [31:0] $end
    $var wire  4 / ALUctrl [3:0] $end
    $var wire  4 = ALUopcode [3:0] $end
    $var wire  1 0 ALUsrc $end
    $var wire 32 (! BRCHCDEW [31:0] $end
    $var wire 32 )! IMMOPW [31:0] $end
    $var wire 32 (! IMMSELW [31:0] $end
    $var wire 32 %! INSTRW [31:0] $end
    $var wire 25 ; Imm [24:0] $end
    $var wire 25 2 ImmOp [24:0] $end
    $var wire  3 1 Immsrc [2:0] $end
    $var wire 32 b Instruction [31:0] $end
    $var wire 32 %! MEMWRITEW [31:0] $end
    $var wire  1 ( MemWrite $end
    $var wire 32 0! OPCODEW [31:0] $end
    $var wire 16 $ PC [15:0] $end
    $var wire  1 % PCSrc $end
    $var wire 32 &! PCWIDTH [31:0] $end
    $var wire 16 +! PC_next [15:0] $end
    $var wire 32 $! RDADDR1W [31:0] $end
    $var wire 32 $! RDADDR2W [31:0] $end
    $var wire  5 * RdAdd1 [4:0] $end
    $var wire  5 , RdAdd2 [4:0] $end
    $var wire  1 ) RegWrite $end
    $var wire  1 ' ResultSrc $end
    $var wire 32 $! SHORTIMMW [31:0] $end
    $var wire  5 2! ShortImm [4:0] $end
    $var wire 32 /! UPPERIMW [31:0] $end
    $var wire 20 1! UpperImm [19:0] $end
    $var wire 32 $! WRADDRW [31:0] $end
    $var wire  5 . WrAddr [4:0] $end
    $var wire  1 & ZERO [0:0] $end
    $var wire 32 .! ZEROW [31:0] $end
    $var wire  3 ? branchcode [2:0] $end
    $var wire  7 < opcode [6:0] $end
    $var wire  5 > r0 [4:0] $end
    $var wire  5 8 rd [4:0] $end
    $var wire  5 9 rs1 [4:0] $end
    $var wire  5 : rs2 [4:0] $end
   $upscope $end
   $scope module DoutMux $end
    $var wire 32 %! WORD_WIDTH [31:0] $end
    $var wire 32 6 dout [31:0] $end
    $var wire 32 5 option0 [31:0] $end
    $var wire 32 7 option1 [31:0] $end
    $var wire  1 ' sel $end
   $upscope $end
   $scope module MemFile $end
    $var wire 32 &! ADDRESS_WIDTH [31:0] $end
    $var wire 32 5 ALUresult [31:0] $end
    $var wire 32 %! DATA_WIDTH [31:0] $end
    $var wire 32 7 ReadData [31:0] $end
    $var wire  1 ( WEN $end
    $var wire 32 - WriteData [31:0] $end
    $var wire 16 @ addr [15:0] $end
    $var wire  1 h clk $end
   $upscope $end
   $scope module PCMem $end
    $var wire 32 &! ADDRESS_WIDTH [31:0] $end
    $var wire 32 %! DATA_WIDTH [31:0] $end
    $var wire 16 a PC [15:0] $end
    $var wire 32 b instr [31:0] $end
    $var wire  8 c instrByte1 [7:0] $end
    $var wire  8 d instrByte2 [7:0] $end
    $var wire  8 e instrByte3 [7:0] $end
    $var wire  8 f instrByte4 [7:0] $end
   $upscope $end
   $scope module PCTarget $end
    $var wire 32 %! DATA_WIDTH [31:0] $end
    $var wire 32 3 ImmExt [31:0] $end
    $var wire 16 a PC [15:0] $end
    $var wire 16 # PC_Target [15:0] $end
    $var wire 32 &! PC_WIDTH [31:0] $end
   $upscope $end
   $scope module ProgramCounter $end
    $var wire 16 a PC [15:0] $end
    $var wire 16 # PC_Target [15:0] $end
    $var wire 32 &! PC_WIDTH [31:0] $end
    $var wire  1 % PCsrc $end
    $var wire 16 # branch_PC [15:0] $end
    $var wire  1 h clk $end
    $var wire 16 g inc_PC [15:0] $end
    $var wire 16 #! next_PC [15:0] $end
    $var wire  1 i rst $end
   $upscope $end
   $scope module RegFile $end
    $var wire 32 $! ADDRESS_WIDTH [31:0] $end
    $var wire  5 * RA1 [4:0] $end
    $var wire  5 , RA2 [4:0] $end
    $var wire 32 + RD1 [31:0] $end
    $var wire 32 - RD2 [31:0] $end
    $var wire  5 . WA3 [4:0] $end
    $var wire 32 6 WD3 [31:0] $end
    $var wire  1 ) WEN $end
    $var wire 32 %! WORD_WIDTH [31:0] $end
    $var wire  1 h clk $end
    $var wire 32 A rom_array[0] [31:0] $end
    $var wire 32 K rom_array[10] [31:0] $end
    $var wire 32 L rom_array[11] [31:0] $end
    $var wire 32 M rom_array[12] [31:0] $end
    $var wire 32 N rom_array[13] [31:0] $end
    $var wire 32 O rom_array[14] [31:0] $end
    $var wire 32 P rom_array[15] [31:0] $end
    $var wire 32 Q rom_array[16] [31:0] $end
    $var wire 32 R rom_array[17] [31:0] $end
    $var wire 32 S rom_array[18] [31:0] $end
    $var wire 32 T rom_array[19] [31:0] $end
    $var wire 32 B rom_array[1] [31:0] $end
    $var wire 32 U rom_array[20] [31:0] $end
    $var wire 32 V rom_array[21] [31:0] $end
    $var wire 32 W rom_array[22] [31:0] $end
    $var wire 32 X rom_array[23] [31:0] $end
    $var wire 32 Y rom_array[24] [31:0] $end
    $var wire 32 Z rom_array[25] [31:0] $end
    $var wire 32 [ rom_array[26] [31:0] $end
    $var wire 32 \ rom_array[27] [31:0] $end
    $var wire 32 ] rom_array[28] [31:0] $end
    $var wire 32 ^ rom_array[29] [31:0] $end
    $var wire 32 C rom_array[2] [31:0] $end
    $var wire 32 _ rom_array[30] [31:0] $end
    $var wire 32 ` rom_array[31] [31:0] $end
    $var wire 32 D rom_array[3] [31:0] $end
    $var wire 32 E rom_array[4] [31:0] $end
    $var wire 32 F rom_array[5] [31:0] $end
    $var wire 32 G rom_array[6] [31:0] $end
    $var wire 32 H rom_array[7] [31:0] $end
    $var wire 32 I rom_array[8] [31:0] $end
    $var wire 32 J rom_array[9] [31:0] $end
   $upscope $end
   $scope module SignExt $end
    $var wire 32 %! DATA_WIDTH [31:0] $end
    $var wire 25 2 Imm [31:7] $end
    $var wire 32 3 ImmExt [31:0] $end
    $var wire  3 1 ImmSel [2:0] $end
   $upscope $end
  $upscope $end
 $upscope $end
$enddefinitions $end


#0
b0000000000000000 #
b0000000000000000 $
0%
0&
0'
0(
0)
b00000 *
b00000000000000000000000000000000 +
b00000 ,
b00000000000000000000000000000000 -
b00000 .
b0000 /
00
b000 1
b0000000000000000000000000 2
b00000000000000000000000000000000 3
b00000000000000000000000000000000 4
b00000000000000000000000000000000 5
b00000000000000000000000000000000 6
b00000000000000000000000000000000 7
b00000 8
b00000 9
b00000 :
b0000000000000000000000000 ;
b0000000 <
b0000 =
b00000 >
b000 ?
b0000000000000000 @
b00000000000000000000000000000000 A
b00000000000000000000000000000000 B
b00000000000000000000000000000000 C
b00000000000000000000000000000000 D
b00000000000000000000000000000000 E
b00000000000000000000000000000000 F
b00000000000000000000000000000000 G
b00000000000000000000000000000000 H
b00000000000000000000000000000000 I
b00000000000000000000000000000000 J
b00000000000000000000000000000000 K
b00000000000000000000000000000000 L
b00000000000000000000000000000000 M
b00000000000000000000000000000000 N
b00000000000000000000000000000000 O
b00000000000000000000000000000000 P
b00000000000000000000000000000000 Q
b00000000000000000000000000000000 R
b00000000000000000000000000000000 S
b00000000000000000000000000000000 T
b00000000000000000000000000000000 U
b00000000000000000000000000000000 V
b00000000000000000000000000000000 W
b00000000000000000000000000000000 X
b00000000000000000000000000000000 Y
b00000000000000000000000000000000 Z
b00000000000000000000000000000000 [
b00000000000000000000000000000000 \
b00000000000000000000000000000000 ]
b00000000000000000000000000000000 ^
b00000000000000000000000000000000 _
b00000000000000000000000000000000 `
b0000000000000000 a
b00000000000000000000000000000000 b
b00000000 c
b00000000 d
b00000000 e
b00000000 f
b0000000000000100 g
0h
0i
b00000000000000000000000000000000 j
b0000000000000000 k
b0000000000000000 l
b00000000000000000000000000000000 m
b0000000000000000 n
b00000000000000000000000000000000 o
b00000000000000000000000000000000 p
b00000000000000000000000000000000 q
b00000000000000000000000000000000 r
0s
b00000 t
b00000 u
0v
0w
0x
b0000 y
0z
b000 {
0|
b0000000000000000000000000 }
b0000000000000000 ~
b00000 !!
b00000000000000000000000000000000 "!
b0000000000000100 #!
b00000000000000000000000000000101 $!
b00000000000000000000000000100000 %!
b00000000000000000000000000010000 &!
b00000000000000000000000000000100 '!
b00000000000000000000000000000011 (!
b00000000000000000000000000011001 )!
b0000000000000000 *!
b0000000000000000 +!
b0000000000000000 ,!
b00000000000000000000000000000000 -!
b00000000000000000000000000000001 .!
b00000000000000000000000000010100 /!
b00000000000000000000000000000111 0!
b00000000000000000000 1!
b00000 2!
#1
1&
1)
10
b0010011 <
b00000000000000000000000000010011 b
b00010011 c
1h
b00000000000000000000000000010011 m
1s
1z
1|
#2
0h
#3
b0000000100000011 #
0&
b00110 .
b0000111111110000000000110 2
b00000000000000000000000011111111 3
b00000000000000000000000011111111 4
b00000000000000000000000011111111 5
b00000000000000000000000011111111 6
b00110 8
b11111 :
b0000111111110000000000110 ;
b0000000011111111 @
b0000000000000100 a
b00001111111100000000001100010011 b
b00000011 d
b11110000 e
b00001111 f
b0000000000001000 g
1h
b00000000000000000000000011111111 j
b0000000100000011 l
b00001111111100000000001100010011 m
0s
b0000111111110000000000110 }
b00110 !!
b00000000000000000000000011111111 "!
b0000000000001000 #!
#4
0h
#5
b0000000000101000 #
b00111 .
b0000001000000000000000111 2
b00000000000000000000000000100000 3
b00000000000000000000000000100000 4
b00000000000000000000000000100000 5
b00000000000000000000000000100000 6
b00111 8
b00000 :
b0000001000000000000000111 ;
b0000000000100000 @
b00000000000000000000000011111111 G
b0000000000001000 a
b00000010000000000000001110010011 b
b10010011 c
b00000000 e
b00000010 f
b0000000000001100 g
1h
b00000000000000000000000000100000 j
b0000000000101000 l
b00000010000000000000001110010011 m
b0000001000000000000000111 }
b00111 !!
b00000000000000000000000000100000 "!
b0000000000001100 #!
#6
0h
#7
b0000000000010100 #
b11100 .
b0000000010000000000011100 2
b00000000000000000000000000001000 3
b00000000000000000000000000001000 4
b00000000000000000000000000001000 5
b00000000000000000000000000001000 6
b11100 8
b01000 :
b0000000010000000000011100 ;
b0000000000001000 @
b00000000000000000000000000100000 H
b0000000000001100 a
b00000000100000000000111000010011 b
b00010011 c
b00001110 d
b10000000 e
b00000000 f
b0000000000010000 g
1h
b00000000000000000000000000001000 j
b0000000000010100 l
b00000000100000000000111000010011 m
b0000000010000000000011100 }
b11100 !!
b00000000000000000000000000001000 "!
b0000000000010000 #!
#8
0h
#9
b0000000000010000 #
1&
b00000 .
b0000000000000000000000000 2
b00000000000000000000000000000000 3
b00000000000000000000000000000000 4
b00000000000000000000000000000000 5
b00000000000000000000000000000000 6
b00000 8
b00000 :
b0000000000000000000000000 ;
b0000000000000000 @
b00000000000000000000000000001000 ]
b0000000000010000 a
b00000000000000000000000000010011 b
b00000000 d
b00000000 e
b0000000000010100 g
1h
b00000000000000000000000000000000 j
b0000000000010000 l
b00000000000000000000000000010011 m
1s
b0000000000000000000000000 }
b00000 !!
b00000000000000000000000000000000 "!
b0000000000010100 #!
#10
0h
#11
b0000000000010100 #
b0000000000010100 a
b0000000000011000 g
1h
b0000000000010100 l
b0000000000011000 #!
#12
0h
#13
b0000000000011000 #
b0000000000011000 a
b0000000000011100 g
1h
b0000000000011000 l
b0000000000011100 #!
#14
0h
#15
b0000000000100110 #
0&
1'
1(
0)
b00110 ,
b00000000000000000000000011111111 -
00
b010 1
b0000000001100000001001010 2
b00000000000000000000000000001010 3
b00000000000000000000000011111111 4
b00000000000000000000000011111111 5
b01010 8
b00110 :
b0000000001100000001001010 ;
b0100011 <
b0010 =
b010 ?
b0000000011111111 @
b0000000000011100 a
b00000000011000000010010100100011 b
b00100011 c
b00100101 d
b01100000 e
b0000000000100000 g
1h
b00000000000000000000000000001010 j
b0000000000100110 l
b00000000011000000010010100100011 m
b00000000000000000000000011111111 p
0s
b00110 u
1w
1x
0z
b010 {
0|
b0000000001100000001001010 }
b0000000000100000 #!
#16
0h
#17
b0000000000101011 #
b00111 ,
b00000000000000000000000000100000 -
b0000000001110000001001011 2
b00000000000000000000000000001011 3
b00000000000000000000000000100000 4
b00000000000000000000000000100000 5
b01011 8
b00111 :
b0000000001110000001001011 ;
b0000000000100000 @
b0000000000100000 a
b00000000011100000010010110100011 b
b10100011 c
b01110000 e
b0000000000100100 g
1h
b00000000000000000000000000001011 j
b0000000000101011 l
b00000000011100000010010110100011 m
b00000000000000000000000000100000 p
b00111 u
b0000000001110000001001011 }
b0000000000100100 #!
#18
0h
#19
b0000000000110000 #
b11100 ,
b00000000000000000000000000001000 -
b0000000111000000001001100 2
b00000000000000000000000000001100 3
b00000000000000000000000000001000 4
b00000000000000000000000000001000 5
b01100 8
b11100 :
b0000000111000000001001100 ;
b0000000000001000 @
b0000000000100100 a
b00000001110000000010011000100011 b
b00100011 c
b00100110 d
b11000000 e
b00000001 f
b0000000000101000 g
1h
b00000000000000000000000000001100 j
b0000000000110000 l
b00000001110000000010011000100011 m
b00000000000000000000000000001000 p
b11100 u
b0000000111000000001001100 }
b0000000000101000 #!
#20
0h
#21
b0000000000101000 #
1&
0'
0(
1)
b00000 ,
b00000000000000000000000000000000 -
10
b000 1
b0000000000000000000000000 2
b00000000000000000000000000000000 3
b00000000000000000000000000000000 4
b00000000000000000000000000000000 5
b00000 8
b00000 :
b0000000000000000000000000 ;
b0010011 <
b0000 =
b000 ?
b0000000000000000 @
b0000000000101000 a
b00000000000000000000000000010011 b
b00010011 c
b00000000 d
b00000000 e
b00000000 f
b0000000000101100 g
1h
b00000000000000000000000000000000 j
b0000000000101000 l
b00000000000000000000000000010011 m
b00000000000000000000000000000000 p
1s
b00000 u
0w
0x
1z
b000 {
1|
b0000000000000000000000000 }
b0000000000101100 #!
#22
0h
#23
b0000000000101100 #
b0000000000101100 a
b0000000000110000 g
1h
b0000000000101100 l
b0000000000110000 #!
#24
0h
#25
b0000000000110000 #
b0000000000110000 a
b0000000000110100 g
1h
b0000000000110000 l
b0000000000110100 #!
#26
0h
#27
b0000000000111110 #
0&
1'
1(
b01010 .
b100 1
b0000000010100000001011101 2
b00000000000000000000000000001010 3
b00000000000000000000000000001010 4
b00000000000000000000000000001010 5
b11101 8
b01010 :
b0000000010100000001011101 ;
b0000011 <
b0010 =
b010 ?
b0000000000001010 @
b0000000000110100 a
b00000000101000000010111010000011 b
b10000011 c
b00101110 d
b10100000 e
b0000000000111000 g
1h
b00000000000000000000000000001010 j
b0000000000111110 l
b00000000101000000010111010000011 m
0s
1w
1x
b100 {
b0000000010100000001011101 }
b01010 !!
b0000000000111000 #!
#28
0h
#29
b0000000001000011 #
b01011 .
b0000000010110000001011110 2
b00000000000000000000000000001011 3
b00000000000000000000000000001011 4
b00000000000000000000000000001011 5
b11110 8
b01011 :
b0000000010110000001011110 ;
b0000000000001011 @
b0000000000111000 a
b00000000101100000010111100000011 b
b00000011 c
b00101111 d
b10110000 e
b0000000000111100 g
1h
b00000000000000000000000000001011 j
b0000000001000011 l
b00000000101100000010111100000011 m
b0000000010110000001011110 }
b01011 !!
b0000000000111100 #!
#30
0h
#31
b0000000001001000 #
b01100 .
b0000000011000000001011111 2
b00000000000000000000000000001100 3
b00000000000000000000000000001100 4
b00000000000000000000000000001100 5
b11111 8
b01100 :
b0000000011000000001011111 ;
b0000000000001100 @
b0000000000111100 a
b00000000110000000010111110000011 b
b10000011 c
b11000000 e
b0000000001000000 g
1h
b00000000000000000000000000001100 j
b0000000001001000 l
b00000000110000000010111110000011 m
b0000000011000000001011111 }
b01100 !!
b0000000001000000 #!
#32
0h
#33
b0000000001000000 #
1&
0'
0(
b00000 .
b000 1
b0000000000000000000000000 2
b00000000000000000000000000000000 3
b00000000000000000000000000000000 4
b00000000000000000000000000000000 5
b00000 8
b00000 :
b0000000000000000000000000 ;
b0010011 <
b0000 =
b000 ?
b0000000000000000 @
b0000000001000000 a
b00000000000000000000000000010011 b
b00010011 c
b00000000 d
b00000000 e
b0000000001000100 g
1h
b00000000000000000000000000000000 j
b0000000001000000 l
b00000000000000000000000000010011 m
1s
0w
0x
b000 {
b0000000000000000000000000 }
b00000 !!
b0000000001000100 #!
#34
0h
#35
b0000000001000100 #
b0000000001000100 a
b0000000001001000 g
1h
b0000000001000100 l
b0000000001001000 #!
#36
0h
#37
b0000000001001000 #
0&
b00111 .
b001 1
b0000000000010000000000111 2
b00000000000100000000000000000000 3
b00000000000100000000000000000000 4
b00000000000100000000000000000000 5
b00000000000100000000000000000000 6
b00111 8
b00001 :
b0000000000010000000000111 ;
b0110111 <
b0000000001001000 a
b00000000000100000000001110110111 b
b10110111 c
b00000011 d
b00010000 e
b0000000001001100 g
1h
b00000000000100000000000000000000 j
b0000000001001000 l
b00000000000100000000001110110111 m
0s
b001 {
b0000000000010000000000111 }
b00111 !!
b00000000000100000000000000000000 "!
b0000000001001100 #!
#38
0h
#39
b0000000001001010 #
b00111 *
b00000000000100000000000000000000 +
b000 1
b1111111111100011100000111 2
b11111111111111111111111111111110 3
b11111111111111111111111111111110 4
b00000000000011111111111111111110 5
b00000000000011111111111111111110 6
b00111 9
b11110 :
b1111111111100011100000111 ;
b0010011 <
b1000 =
b1111111111111110 @
b00000000000100000000000000000000 H
b0000000001001100 a
b11111111111000111000001110010011 b
b10010011 c
b10000011 d
b11100011 e
b11111111 f
b0000000001010000 g
1h
b11111111111111111111111111111110 j
b0000000001001010 l
b11111111111000111000001110010011 m
b00000000000100000000000000000000 o
b00111 t
b000 {
b1111111111100011100000111 }
b00000000000011111111111111111110 "!
b0000000001010000 #!
#40
0h
#41
b0000000001010111 #
b00110 *
b00000000000000000000000011111111 +
b00111 ,
b00000000000011111111111111111110 -
b11100 .
00
b0000000001110011000011100 2
b00000000000000000000000000000111 3
b00000000000011111111111111111110 4
b00000000000100000000000011111101 5
b00000000000100000000000011111101 6
b11100 8
b00110 9
b00111 :
b0000000001110011000011100 ;
b0110011 <
b0000 =
b0000000011111101 @
b00000000000011111111111111111110 H
b0000000001010000 a
b00000000011100110000111000110011 b
b00110011 c
b00001110 d
b01110011 e
b00000000 f
b0000000001010100 g
1h
b00000000000000000000000000000111 j
b0000000001010111 l
b00000000011100110000111000110011 m
b00000000000000000000000011111111 o
b00000000000011111111111111111110 p
b00110 t
b00111 u
0z
b0000000001110011000011100 }
b11100 !!
b00000000000100000000000011111101 "!
b0000000001010100 #!
#42
0h
#43
b0000000001110011 #
1&
b11110 *
b00000000000000000000000000000000 +
b11111 ,
b00000000000000000000000000000000 -
b11101 .
b0000000111111111000011101 2
b00000000000000000000000000011111 3
b00000000000000000000000000000000 4
b00000000000000000000000000000000 5
b00000000000000000000000000000000 6
b11101 8
b11110 9
b11111 :
b0000000111111111000011101 ;
b0000000000000000 @
b00000000000100000000000011111101 ]
b0000000001010100 a
b00000001111111110000111010110011 b
b10110011 c
b11111111 e
b00000001 f
b0000000001011000 g
1h
b00000000000000000000000000011111 j
b0000000001110011 l
b00000001111111110000111010110011 m
b00000000000000000000000000000000 o
b00000000000000000000000000000000 p
1s
b11110 t
b11111 u
b0000000111111111000011101 }
b11101 !!
b00000000000000000000000000000000 "!
b0000000001011000 #!
#44
0h
#45
b0000000001011000 #
0)
b00000 *
b00000 ,
b00000 .
10
b0000000000000000000000000 2
b00000000000000000000000000000000 3
b00000 8
b00000 9
b00000 :
b0000000000000000000000000 ;
b0000000 <
b0000000001011000 a
b00000000000000000000000000000000 b
b00000000 c
b00000000 d
b00000000 e
b00000000 f
b0000000001011100 g
1h
b00000000000000000000000000000000 j
b0000000001011000 l
b00000000000000000000000000000000 m
b00000 t
b00000 u
1z
0|
b0000000000000000000000000 }
b00000 !!
b0000000001011100 #!
#46
0h
#47
b0000000001011100 #
b0000000001011100 a
b0000000001100000 g
1h
b0000000001011100 l
b0000000001100000 #!
#48
0h
#49
b0000000001100000 #
b0000000001100000 a
b0000000001100100 g
1h
b0000000001100000 l
b0000000001100100 #!
#50
0h
#51
b0000000001100100 #
b0000000001100100 a
b0000000001101000 g
1h
b0000000001100100 l
b0000000001101000 #!
#52
0h
#53
b0000000001101000 #
b0000000001101000 a
b0000000001101100 g
1h
b0000000001101000 l
b0000000001101100 #!
#54
0h
#55
b0000000001101100 #
b0000000001101100 a
b0000000001110000 g
1h
b0000000001101100 l
b0000000001110000 #!
#56
0h
#57
b0000000001110000 #
b0000000001110000 a
b0000000001110100 g
1h
b0000000001110000 l
b0000000001110100 #!
#58
0h
#59
b0000000001110100 #
b0000000001110100 a
b0000000001111000 g
1h
b0000000001110100 l
b0000000001111000 #!
#60
0h
#61
b0000000001111000 #
b0000000001111000 a
b0000000001111100 g
1h
b0000000001111000 l
b0000000001111100 #!
#62
0h
#63
b0000000001111100 #
b0000000001111100 a
b0000000010000000 g
1h
b0000000001111100 l
b0000000010000000 #!
#64
0h
#65
b0000000010000000 #
b0000000010000000 a
b0000000010000100 g
1h
b0000000010000000 l
b0000000010000100 #!
#66
0h
#67
b0000000010000100 #
b0000000010000100 a
b0000000010001000 g
1h
b0000000010000100 l
b0000000010001000 #!
#68
0h
#69
b0000000010001000 #
b0000000010001000 a
b0000000010001100 g
1h
b0000000010001000 l
b0000000010001100 #!
#70
0h
#71
b0000000010001100 #
b0000000010001100 a
b0000000010010000 g
1h
b0000000010001100 l
b0000000010010000 #!
#72
0h
#73
b0000000010010000 #
b0000000010010000 a
b0000000010010100 g
1h
b0000000010010000 l
b0000000010010100 #!
#74
0h
#75
b0000000010010100 #
b0000000010010100 a
b0000000010011000 g
1h
b0000000010010100 l
b0000000010011000 #!
#76
0h
#77
b0000000010011000 #
b0000000010011000 a
b0000000010011100 g
1h
b0000000010011000 l
b0000000010011100 #!
#78
0h
#79
b0000000010011100 #
b0000000010011100 a
b0000000010100000 g
1h
b0000000010011100 l
b0000000010100000 #!
#80
0h
#81
b0000000010100000 #
b0000000010100000 a
b0000000010100100 g
1h
b0000000010100000 l
b0000000010100100 #!
#82
0h
#83
b0000000010100100 #
b0000000010100100 a
b0000000010101000 g
1h
b0000000010100100 l
b0000000010101000 #!
#84
0h
#85
b0000000010101000 #
b0000000010101000 a
b0000000010101100 g
1h
b0000000010101000 l
b0000000010101100 #!
#86
0h
#87
b0000000010101100 #
b0000000010101100 a
b0000000010110000 g
1h
b0000000010101100 l
b0000000010110000 #!
#88
0h
#89
b0000000010110000 #
b0000000010110000 a
b0000000010110100 g
1h
b0000000010110000 l
b0000000010110100 #!
#90
0h
#91
b0000000010110100 #
b0000000010110100 a
b0000000010111000 g
1h
b0000000010110100 l
b0000000010111000 #!
#92
0h
#93
b0000000010111000 #
b0000000010111000 a
b0000000010111100 g
1h
b0000000010111000 l
b0000000010111100 #!
#94
0h
#95
b0000000010111100 #
b0000000010111100 a
b0000000011000000 g
1h
b0000000010111100 l
b0000000011000000 #!
#96
0h
#97
b0000000011000000 #
b0000000011000000 a
b0000000011000100 g
1h
b0000000011000000 l
b0000000011000100 #!
#98
0h
#99
b0000000011000100 #
b0000000011000100 a
b0000000011001000 g
1h
b0000000011000100 l
b0000000011001000 #!
#100
0h
#101
b0000000011001000 #
b0000000011001000 a
b0000000011001100 g
1h
b0000000011001000 l
b0000000011001100 #!
#102
0h
#103
b0000000011001100 #
b0000000011001100 a
b0000000011010000 g
1h
b0000000011001100 l
b0000000011010000 #!
#104
0h
#105
b0000000011010000 #
b0000000011010000 a
b0000000011010100 g
1h
b0000000011010000 l
b0000000011010100 #!
#106
0h
#107
b0000000011010100 #
b0000000011010100 a
b0000000011011000 g
1h
b0000000011010100 l
b0000000011011000 #!
#108
0h
#109
b0000000011011000 #
b0000000011011000 a
b0000000011011100 g
1h
b0000000011011000 l
b0000000011011100 #!
#110
0h
#111
b0000000011011100 #
b0000000011011100 a
b0000000011100000 g
1h
b0000000011011100 l
b0000000011100000 #!
#112
0h
#113
b0000000011100000 #
b0000000011100000 a
b0000000011100100 g
1h
b0000000011100000 l
b0000000011100100 #!
#114
0h
#115
b0000000011100100 #
b0000000011100100 a
b0000000011101000 g
1h
b0000000011100100 l
b0000000011101000 #!
#116
0h
#117
b0000000011101000 #
b0000000011101000 a
b0000000011101100 g
1h
b0000000011101000 l
b0000000011101100 #!
#118
0h
#119
b0000000011101100 #
b0000000011101100 a
b0000000011110000 g
1h
b0000000011101100 l
b0000000011110000 #!
#120
0h
#121
b0000000011110000 #
b0000000011110000 a
b0000000011110100 g
1h
b0000000011110000 l
b0000000011110100 #!
#122
0h
#123
b0000000011110100 #
b0000000011110100 a
b0000000011111000 g
1h
b0000000011110100 l
b0000000011111000 #!
#124
0h
#125
b0000000011111000 #
b0000000011111000 a
b0000000011111100 g
1h
b0000000011111000 l
b0000000011111100 #!
#126
0h
#127
b0000000011111100 #
b0000000011111100 a
b0000000100000000 g
1h
b0000000011111100 l
b0000000100000000 #!
#128
0h
#129
b0000000100000000 #
b0000000100000000 a
b0000000100000100 g
1h
b0000000100000000 l
b0000000100000100 #!
#130
0h
#131
b0000000100000100 #
b0000000100000100 a
b0000000100001000 g
1h
b0000000100000100 l
b0000000100001000 #!
#132
0h
#133
b0000000100001000 #
b0000000100001000 a
b0000000100001100 g
1h
b0000000100001000 l
b0000000100001100 #!
#134
0h
#135
b0000000100001100 #
b0000000100001100 a
b0000000100010000 g
1h
b0000000100001100 l
b0000000100010000 #!
#136
0h
#137
b0000000100010000 #
b0000000100010000 a
b0000000100010100 g
1h
b0000000100010000 l
b0000000100010100 #!
#138
0h
